INDEX VERSION 1.131+D:\Galaxy Services\bsnl\galaxy-services\.metadata\.plugins\org.eclipse.jdt.core
998714232.index
2212850069.index
546922447.index
3736435231.index
799026069.index
351193876.index
3699458262.index
2347081583.index
3178688521.index
2650851402.index
1027348863.index
566456379.index
646519732.index
2137853448.index
1033536732.index
2131702778.index
3833696200.index
4253034269.index
2210257680.index
1480544630.index
3534752985.index
4033127170.index
713869195.index
3559012843.index
2916810260.index
723688094.index
2035710573.index
179752869.index
1826459832.index
2657015033.index
924769540.index
3672386328.index
2791987227.index
3429145364.index
995294361.index
3867541168.index
3937499935.index
875443470.index
3954043228.index
2459007336.index
799653588.index
3607094782.index
2602416774.index
868620594.index
1151912622.index
1757270489.index
1283007960.index
1081859204.index
2136214418.index
2307096798.index
4188645804.index
2702411360.index
1266934810.index
774474356.index
4256287745.index
74990670.index
3183884413.index
2595716801.index
3693029486.index
1097644474.index
1683881778.index
264045817.index
3543422066.index
3844470520.index
2523218929.index
81601147.index
400740458.index
2181530232.index
2408686214.index
1243729148.index
3506317912.index
3791435750.index
3368753249.index
3053036548.index
4059720015.index
1041930508.index
123670145.index
768490171.index
2037996028.index
1849702507.index
1868550994.index
2002660019.index
2007908084.index
558719260.index
4170759868.index
1306577618.index
2382443273.index
3755055156.index
3674701864.index
1105666391.index
1170505505.index
3049549989.index
1943659302.index
3584307787.index
2739180715.index
3208247182.index
1574962933.index
2372628347.index
2753644804.index
2052603519.index
3381677483.index
