<?xml version="1.0" encoding="UTF-8"?>
<session version="1.0">
<refactoring comment="Rename package &apos;com.controller&apos; to &apos;com.javatpoint.controller&apos;&#x0D;&#x0A;- Original project: &apos;spring-boot-example&apos;&#x0D;&#x0A;- Original element: &apos;spring-boot-example/src/main/java/com.controller&apos;&#x0D;&#x0A;- Renamed element: &apos;spring-boot-example/src/main/java/com.javatpoint.controller&apos;&#x0D;&#x0A;- Update references to refactored element&#x0D;&#x0A;- Update textual occurrences in comments and strings" description="Rename package &apos;com.controller&apos;" flags="589830" hierarchical="false" id="org.eclipse.jdt.ui.rename.package" input="/src\/main\/java=/optional=/true=/=/maven.pomderived=/true=/&lt;com.controller" name="com.javatpoint.controller" qualified="false" references="true" stamp="1621081278821" textual="false" version="1.0"/>
</session>